__constant char * const BG_COLOR = (char *) 53280
__constant const char BLACK = 0
__constant char * const CIA1_INTERRUPT = (char *) 56333
__constant const char CIA_INTERRUPT_CLEAR_ALL = $7f
__constant char * const FGCOL = (char *) 53281
__constant void (** const HARDWARE_IRQ)() = (void (**)()) 65534
__constant char * const IRQ_ENABLE = (char *) 53274
__constant const char IRQ_RASTER = 1
__constant char * const IRQ_STATUS = (char *) 53273
__constant char * const PROCPORT = (char *) 1
__constant char * const PROCPORT_DDR = (char *) 0
__constant const char PROCPORT_DDR_MEMORY_MASK = 7
__constant const char PROCPORT_RAM_IO = $35
__constant char * const RASTER = (char *) 53266
__constant char * const VICII_CONTROL1 = (char *) 53265
__constant const char WHITE = 1
__interrupt(hardware_all) void irq()
void main()

