__constant char BUF1[$14] = { fill( $14, 0) }
__constant char BUF2[$14] = { fill( $14, 0) }
__constant char * const COLORRAM = (char *) 55296
__constant char * const DEFAULT_SCREEN = (char *) 1024
__constant const char LIGHT_BLUE = $e
__constant char RADIX::BINARY = 2
__constant char RADIX::DECIMAL = $a
__constant char RADIX::HEXADECIMAL = $10
__constant char RADIX::OCTAL = 8
__constant unsigned int STACK_BASE = $103
__loadstore char *__snprintf_buffer // zp[2]:20 16.916666666666664
__loadstore volatile unsigned int __snprintf_capacity = 0 // mem[2] 11.653846153846153
__loadstore volatile unsigned int __snprintf_size = 0 // mem[2] 20.2
void __start()
void conio_c64_init()
__constant char * const conio_c64_init::BASIC_CURSOR_LINE = (char *) 214
char conio_c64_init::line
char conio_c64_init::line#0 // reg byte x 11.0
char conio_c64_init::line#2 // reg byte x 22.0
__loadstore char conio_cursor_x // zp[1]:18 24.799999999999997
__loadstore char conio_cursor_y // zp[1]:19 18.608695652173914
__loadstore char *conio_line_color // zp[2]:24 14.954545454545453
__loadstore char *conio_line_text // zp[2]:22 15.666666666666668
__stackcall void cputc(char c)
__constant char cputc::OFFSET_STACK_C = 0
char cputc::c
char cputc::c#0 // reg byte a 3.0
void cputln()
void cscroll()
void gotoxy(char x , char y)
char *gotoxy::$5 // zp[2]:16 202.0
char *gotoxy::$6 // zp[2]:12 202.0
unsigned int gotoxy::$7 // zp[2]:12 151.5
unsigned int gotoxy::$8 // zp[2]:14 202.0
unsigned int gotoxy::$9 // zp[2]:12 202.0
unsigned int gotoxy::line_offset
unsigned int gotoxy::line_offset#0 // line_offset zp[2]:12 101.0
char gotoxy::x
__constant char gotoxy::x#2 = 0 // x
char gotoxy::y
char gotoxy::y#2 // reg byte x 71.0
char gotoxy::y#4 // reg byte x 67.33333333333333
void main()
__constant char main::s[$d] = "hello world!"
__constant char main::s1[7] = "hello "
__constant char main::s2[2] = "-"
__constant char main::s3[4] = "- -"
__constant char main::str[6] = "world"
void * memcpy(void *destination , void *source , unsigned int num)
void *memcpy::destination
void *memcpy::destination#2 // destination zp[2]:6
char *memcpy::dst
char *memcpy::dst#1 // dst zp[2]:6 10001.0
char *memcpy::dst#2 // dst zp[2]:6 10334.666666666666
char *memcpy::dst#4 // dst zp[2]:6 2002.0
unsigned int memcpy::num
void *memcpy::return
void *memcpy::source
void *memcpy::source#2 // source zp[2]:2
char *memcpy::src
char *memcpy::src#1 // src zp[2]:2 20002.0
char *memcpy::src#2 // src zp[2]:2 10251.25
char *memcpy::src#4 // src zp[2]:2 1001.0
char *memcpy::src_end
char *memcpy::src_end#0 // src_end zp[2]:8 1375.25
void * memset(void *str , char c , unsigned int num)
char memset::c
char memset::c#4 // reg byte x 1428.7142857142858
char *memset::dst
char *memset::dst#1 // dst zp[2]:2 20002.0
char *memset::dst#2 // dst zp[2]:2 13668.333333333332
char *memset::dst#4 // dst zp[2]:2 2002.0
char *memset::end
char *memset::end#0 // end zp[2]:6 1833.6666666666665
unsigned int memset::num
void *memset::return
void *memset::str
void *memset::str#3 // str zp[2]:2
void printf_str(void (*putc)(char) , const char *s)
char printf_str::c
char printf_str::c#1 // reg byte a 10001.0
void (*printf_str::putc)(char)
void (*printf_str::putc#0)(char) // putc zp[2]:10 101.0
void (*printf_str::putc#8)(char) // putc zp[2]:10 1010.0
const char *printf_str::s
const char *printf_str::s#0 // s zp[2]:4 10001.0
const char *printf_str::s#1 // s zp[2]:4 202.0
const char *printf_str::s#7 // s zp[2]:4 15502.0
const char *printf_str::s#8 // s zp[2]:4 1102.0
void printf_string(void (*putc)(char) , char *str , char format_min_length , char format_justify_left)
struct printf_format_string printf_string::format
char printf_string::format_justify_left
char printf_string::format_min_length
signed char printf_string::len
signed char printf_string::padding
void (*printf_string::putc)(char)
void (*printf_string::putc#10)(char) // putc zp[2]:10 101.0
char *printf_string::str
char *printf_string::str#10 // str zp[2]:4 50.5
void snprintf_init(char *s , unsigned int n)
unsigned int snprintf_init::n
char *snprintf_init::s
char *snprintf_init::s#2 // s zp[2]:10 33.666666666666664
__stackcall void snputc(char c)
__constant char snputc::OFFSET_STACK_C = 0
char snputc::c
char snputc::c#0 // reg byte x 40.4
char snputc::c#2 // reg byte x 202.0

reg byte x [ snputc::c#2 snputc::c#0 ]
reg byte x [ conio_c64_init::line#2 conio_c64_init::line#0 ]
reg byte x [ gotoxy::y#4 gotoxy::y#2 ]
zp[2]:10 [ printf_str::putc#8 printf_str::putc#0 printf_string::putc#10 snprintf_init::s#2 ]
zp[2]:4 [ printf_str::s#7 printf_str::s#8 printf_str::s#1 printf_str::s#0 printf_string::str#10 ]
zp[2]:2 [ memset::str#3 memset::dst#2 memset::dst#4 memset::dst#1 memcpy::source#2 memcpy::src#2 memcpy::src#4 memcpy::src#1 ]
reg byte x [ memset::c#4 ]
zp[1]:18 [ conio_cursor_x ]
zp[1]:19 [ conio_cursor_y ]
zp[2]:22 [ conio_line_text ]
zp[2]:24 [ conio_line_color ]
zp[2]:20 [ __snprintf_buffer ]
mem[2] [ __snprintf_size ]
reg byte a [ cputc::c#0 ]
zp[2]:12 [ gotoxy::$7 gotoxy::$9 gotoxy::line_offset#0 gotoxy::$6 ]
zp[2]:14 [ gotoxy::$8 ]
zp[2]:16 [ gotoxy::$5 ]
mem[2] [ __snprintf_capacity ]
reg byte a [ printf_str::c#1 ]
zp[2]:8 [ memcpy::src_end#0 ]
zp[2]:6 [ memset::end#0 memcpy::destination#2 memcpy::dst#2 memcpy::dst#4 memcpy::dst#1 ]
