Inlined call call __init

CONTROL FLOW GRAPH SSA

void main()
main: scope:[main]  from __start::@1
  main::i#0 = 0
  to:main::@1
main::@1: scope:[main]  from main main::@2
  main::i#2 = phi( main/main::i#0, main::@2/main::i#1 )
  main::$0 = 0 != MESSAGE[main::i#2]
  if(main::$0) goto main::@2
  to:main::@return
main::@2: scope:[main]  from main::@1
  main::i#3 = phi( main::@1/main::i#2 )
  SCREEN[main::i#3] = MESSAGE[main::i#3]
  main::i#1 = ++ main::i#3
  to:main::@1
main::@return: scope:[main]  from main::@1
  return 
  to:@return

void __start()
__start: scope:[__start]  from
  to:__start::__init1
__start::__init1: scope:[__start]  from __start
  to:__start::@1
__start::@1: scope:[__start]  from __start::__init1
  call main
  to:__start::@2
__start::@2: scope:[__start]  from __start::@1
  to:__start::@return
__start::@return: scope:[__start]  from __start::@2
  return 
  to:@return

SYMBOL TABLE SSA
__constant char MESSAGE[] = "aaa刺"
__constant char *SCREEN = (char *)$400
void __start()
void main()
bool main::$0
char main::i
char main::i#0
char main::i#1
char main::i#2
char main::i#3

Adding number conversion cast (unumber) 0 in main::$0 = 0 != MESSAGE[main::i#2]
Successful SSA optimization PassNAddNumberTypeConversions
Simplifying constant pointer cast (char *) 1024
Simplifying constant integer cast 0
Successful SSA optimization PassNCastSimplification
Finalized unsigned number type (char) 0
Successful SSA optimization PassNFinalizeNumberTypeConversions
Alias main::i#2 = main::i#3 
Successful SSA optimization Pass2AliasElimination
Simple Condition main::$0 [3] if(0!=MESSAGE[main::i#2]) goto main::@2
Successful SSA optimization Pass2ConditionalJumpSimplification
Constant main::i#0 = 0
Successful SSA optimization Pass2ConstantIdentification
Removing unused procedure __start
Removing unused procedure block __start
Removing unused procedure block __start::__init1
Removing unused procedure block __start::@1
Removing unused procedure block __start::@2
Removing unused procedure block __start::@return
Successful SSA optimization PassNEliminateEmptyStart
Inlining constant with var siblings main::i#0
Constant inlined main::i#0 = 0
Successful SSA optimization Pass2ConstantInlining
Adding NOP phi() at start of main
CALL GRAPH

Created 1 initial phi equivalence classes
Coalesced [6] main::i#4 = main::i#1
Coalesced down to 1 phi equivalence classes
Adding NOP phi() at start of main

FINAL CONTROL FLOW GRAPH

void main()
main: scope:[main]  from
  [0] phi()
  to:main::@1
main::@1: scope:[main]  from main main::@2
  [1] main::i#2 = phi( main/0, main::@2/main::i#1 )
  [2] if(0!=MESSAGE[main::i#2]) goto main::@2
  to:main::@return
main::@return: scope:[main]  from main::@1
  [3] return 
  to:@return
main::@2: scope:[main]  from main::@1
  [4] SCREEN[main::i#2] = MESSAGE[main::i#2]
  [5] main::i#1 = ++ main::i#2
  to:main::@1


VARIABLE REGISTER WEIGHTS
void main()
char main::i
char main::i#1 // 22.0
char main::i#2 // 18.333333333333332

Initial phi equivalence classes
[ main::i#2 main::i#1 ]
Complete equivalence classes
[ main::i#2 main::i#1 ]
Allocated zp[1]:2 [ main::i#2 main::i#1 ]
REGISTER UPLIFT POTENTIAL REGISTERS
Statement [2] if(0!=MESSAGE[main::i#2]) goto main::@2 [ main::i#2 ] (  [ main::i#2 ] { }  ) always clobbers reg byte a 
Removing always clobbered register reg byte a as potential for zp[1]:2 [ main::i#2 main::i#1 ]
Statement [4] SCREEN[main::i#2] = MESSAGE[main::i#2] [ main::i#2 ] (  [ main::i#2 ] { }  ) always clobbers reg byte a 
Statement [2] if(0!=MESSAGE[main::i#2]) goto main::@2 [ main::i#2 ] (  [ main::i#2 ] { }  ) always clobbers reg byte a 
Statement [4] SCREEN[main::i#2] = MESSAGE[main::i#2] [ main::i#2 ] (  [ main::i#2 ] { }  ) always clobbers reg byte a 
Potential registers zp[1]:2 [ main::i#2 main::i#1 ] : zp[1]:2 , reg byte x , reg byte y , 

REGISTER UPLIFT SCOPES
Uplift Scope [main] 40.33: zp[1]:2 [ main::i#2 main::i#1 ] 
Uplift Scope [] 

Uplifting [main] best 321 combination reg byte x [ main::i#2 main::i#1 ] 
Uplifting [] best 321 combination 

ASSEMBLER BEFORE OPTIMIZATION
  // File Comments
// Test octal escapes in strings
  // Upstart
  // Commodore 64 PRG executable file
.file [name="string-escapes-9.prg", type="prg", segments="Program"]
.segmentdef Program [segments="Basic, Code, Data"]
.segmentdef Basic [start=$0801]
.segmentdef Code [start=$80d]
.segmentdef Data [startAfter="Code"]
.segment Basic
:BasicUpstart(main)
  // Global Constants & labels
  .label SCREEN = $400
.segment Code
  // main
main: {
    // [1] phi from main to main::@1 [phi:main->main::@1]
  __b1_from_main:
    // [1] phi main::i#2 = 0 [phi:main->main::@1#0] -- vbuxx=vbuc1 
    ldx #0
    jmp __b1
    // main::@1
  __b1:
    // [2] if(0!=MESSAGE[main::i#2]) goto main::@2 -- 0_neq_pbuc1_derefidx_vbuxx_then_la1 
    lda MESSAGE,x
    cmp #0
    bne __b2
    jmp __breturn
    // main::@return
  __breturn:
    // [3] return 
    rts
    // main::@2
  __b2:
    // [4] SCREEN[main::i#2] = MESSAGE[main::i#2] -- pbuc1_derefidx_vbuxx=pbuc2_derefidx_vbuxx 
    lda MESSAGE,x
    sta SCREEN,x
    // [5] main::i#1 = ++ main::i#2 -- vbuxx=_inc_vbuxx 
    inx
    // [1] phi from main::@2 to main::@1 [phi:main::@2->main::@1]
  __b1_from___b2:
    // [1] phi main::i#2 = main::i#1 [phi:main::@2->main::@1#0] -- register_copy 
    jmp __b1
}
  // File Data
.segment Data
  MESSAGE: .text @"aaa\$ff"
  .byte 0

ASSEMBLER OPTIMIZATIONS
Removing instruction jmp __b1
Removing instruction jmp __breturn
Succesful ASM optimization Pass5NextJumpElimination
Removing instruction __b1_from_main:
Removing instruction __breturn:
Removing instruction __b1_from___b2:
Succesful ASM optimization Pass5UnusedLabelElimination

FINAL SYMBOL TABLE
__constant char MESSAGE[] = "aaa刺"
__constant char *SCREEN = (char *) 1024
void main()
char main::i
char main::i#1 // reg byte x 22.0
char main::i#2 // reg byte x 18.333333333333332

reg byte x [ main::i#2 main::i#1 ]


FINAL ASSEMBLER
Score: 261

  // File Comments
// Test octal escapes in strings
  // Upstart
  // Commodore 64 PRG executable file
.file [name="string-escapes-9.prg", type="prg", segments="Program"]
.segmentdef Program [segments="Basic, Code, Data"]
.segmentdef Basic [start=$0801]
.segmentdef Code [start=$80d]
.segmentdef Data [startAfter="Code"]
.segment Basic
:BasicUpstart(main)
  // Global Constants & labels
  .label SCREEN = $400
.segment Code
  // main
main: {
    // [1] phi from main to main::@1 [phi:main->main::@1]
    // [1] phi main::i#2 = 0 [phi:main->main::@1#0] -- vbuxx=vbuc1 
    ldx #0
    // main::@1
  __b1:
    // while(MESSAGE[i])
    // [2] if(0!=MESSAGE[main::i#2]) goto main::@2 -- 0_neq_pbuc1_derefidx_vbuxx_then_la1 
    lda MESSAGE,x
    cmp #0
    bne __b2
    // main::@return
    // }
    // [3] return 
    rts
    // main::@2
  __b2:
    // SCREEN[i] = MESSAGE[i++]
    // [4] SCREEN[main::i#2] = MESSAGE[main::i#2] -- pbuc1_derefidx_vbuxx=pbuc2_derefidx_vbuxx 
    lda MESSAGE,x
    sta SCREEN,x
    // SCREEN[i] = MESSAGE[i++];
    // [5] main::i#1 = ++ main::i#2 -- vbuxx=_inc_vbuxx 
    inx
    // [1] phi from main::@2 to main::@1 [phi:main::@2->main::@1]
    // [1] phi main::i#2 = main::i#1 [phi:main::@2->main::@1#0] -- register_copy 
    jmp __b1
}
  // File Data
.segment Data
  MESSAGE: .text @"aaa\$ff"
  .byte 0

