Inlined call call __init

CONTROL FLOW GRAPH SSA

void main()
main: scope:[main]  from __start::@1
  main::i#0 = 0
  to:main::@1
main::@1: scope:[main]  from main main::@2
  main::i#2 = phi( main/main::i#0, main::@2/main::i#1 )
  main::$0 = main::i#2 < $28*4
  if(main::$0) goto main::@2
  to:main::@return
main::@2: scope:[main]  from main::@1
  main::i#3 = phi( main::@1/main::i#2 )
  main::$1 = main::i#3 & 7
  SCREEN[main::i#3] = MSG[main::$1]
  main::i#1 = ++ main::i#3
  to:main::@1
main::@return: scope:[main]  from main::@1
  return 
  to:@return

void __start()
__start: scope:[__start]  from
  to:__start::__init1
__start::__init1: scope:[__start]  from __start
  to:__start::@1
__start::@1: scope:[__start]  from __start::__init1
  call main
  to:__start::@2
__start::@2: scope:[__start]  from __start::@1
  to:__start::@return
__start::@return: scope:[__start]  from __start::@2
  return 
  to:@return

SYMBOL TABLE SSA
__constant char MSG[] = "CAMELOT!"su
__constant char *SCREEN = (char *)$400
void __start()
void main()
bool main::$0
number main::$1
char main::i
char main::i#0
char main::i#1
char main::i#2
char main::i#3

Adding number conversion cast (unumber) $28*4 in main::$0 = main::i#2 < $28*4
Adding number conversion cast (unumber) 7 in main::$1 = main::i#3 & 7
Adding number conversion cast (unumber) main::$1 in main::$1 = main::i#3 & (unumber)7
Successful SSA optimization PassNAddNumberTypeConversions
Simplifying constant pointer cast (char *) 1024
Simplifying constant integer cast 7
Successful SSA optimization PassNCastSimplification
Finalized unsigned number type (char) 7
Successful SSA optimization PassNFinalizeNumberTypeConversions
Inferred type updated to char in main::$1 = main::i#3 & 7
Alias main::i#2 = main::i#3 
Successful SSA optimization Pass2AliasElimination
Simple Condition main::$0 [3] if(main::i#2<(char)$28*4) goto main::@2
Successful SSA optimization Pass2ConditionalJumpSimplification
Constant main::i#0 = 0
Successful SSA optimization Pass2ConstantIdentification
Removing unused procedure __start
Removing unused procedure block __start
Removing unused procedure block __start::__init1
Removing unused procedure block __start::@1
Removing unused procedure block __start::@2
Removing unused procedure block __start::@return
Successful SSA optimization PassNEliminateEmptyStart
Inlining constant with var siblings main::i#0
Constant inlined main::i#0 = 0
Successful SSA optimization Pass2ConstantInlining
Finalized unsigned number type (char) $28
Finalized unsigned number type (char) 4
Successful SSA optimization PassNFinalizeNumberTypeConversions
Simplifying constant integer cast $28*4
Successful SSA optimization PassNCastSimplification
Adding NOP phi() at start of main
CALL GRAPH

Created 1 initial phi equivalence classes
Coalesced [7] main::i#4 = main::i#1
Coalesced down to 1 phi equivalence classes
Adding NOP phi() at start of main

FINAL CONTROL FLOW GRAPH

void main()
main: scope:[main]  from
  [0] phi()
  to:main::@1
main::@1: scope:[main]  from main main::@2
  [1] main::i#2 = phi( main/0, main::@2/main::i#1 )
  [2] if(main::i#2<$28*4) goto main::@2
  to:main::@return
main::@return: scope:[main]  from main::@1
  [3] return 
  to:@return
main::@2: scope:[main]  from main::@1
  [4] main::$1 = main::i#2 & 7
  [5] SCREEN[main::i#2] = MSG[main::$1]
  [6] main::i#1 = ++ main::i#2
  to:main::@1


VARIABLE REGISTER WEIGHTS
void main()
char main::$1 // 22.0
char main::i
char main::i#1 // 22.0
char main::i#2 // 13.75

Initial phi equivalence classes
[ main::i#2 main::i#1 ]
Added variable main::$1 to live range equivalence class [ main::$1 ]
Complete equivalence classes
[ main::i#2 main::i#1 ]
[ main::$1 ]
Allocated zp[1]:2 [ main::i#2 main::i#1 ]
Allocated zp[1]:3 [ main::$1 ]
REGISTER UPLIFT POTENTIAL REGISTERS
Statement [5] SCREEN[main::i#2] = MSG[main::$1] [ main::i#2 ] (  [ main::i#2 ] { }  ) always clobbers reg byte a 
Removing always clobbered register reg byte a as potential for zp[1]:2 [ main::i#2 main::i#1 ]
Statement [4] main::$1 = main::i#2 & 7 [ main::i#2 main::$1 ] (  [ main::i#2 main::$1 ] { }  ) always clobbers reg byte a 
Statement [5] SCREEN[main::i#2] = MSG[main::$1] [ main::i#2 ] (  [ main::i#2 ] { }  ) always clobbers reg byte a 
Potential registers zp[1]:2 [ main::i#2 main::i#1 ] : zp[1]:2 , reg byte x , reg byte y , 
Potential registers zp[1]:3 [ main::$1 ] : zp[1]:3 , reg byte a , reg byte x , reg byte y , 

REGISTER UPLIFT SCOPES
Uplift Scope [main] 35.75: zp[1]:2 [ main::i#2 main::i#1 ] 22: zp[1]:3 [ main::$1 ] 
Uplift Scope [] 

Uplifting [main] best 336 combination reg byte x [ main::i#2 main::i#1 ] reg byte a [ main::$1 ] 
Uplifting [] best 336 combination 

ASSEMBLER BEFORE OPTIMIZATION
  // File Comments
// Test declaring a variable as register with no information about which register (for compatibility with standard C)
  // Upstart
  // Commodore 64 PRG executable file
.file [name="var-register-noarg.prg", type="prg", segments="Program"]
.segmentdef Program [segments="Basic, Code, Data"]
.segmentdef Basic [start=$0801]
.segmentdef Code [start=$80d]
.segmentdef Data [startAfter="Code"]
.segment Basic
:BasicUpstart(main)
  // Global Constants & labels
  .label SCREEN = $400
.segment Code
  // main
main: {
    // [1] phi from main to main::@1 [phi:main->main::@1]
  __b1_from_main:
    // [1] phi main::i#2 = 0 [phi:main->main::@1#0] -- vbuxx=vbuc1 
    ldx #0
    jmp __b1
    // main::@1
  __b1:
    // [2] if(main::i#2<$28*4) goto main::@2 -- vbuxx_lt_vbuc1_then_la1 
    cpx #$28*4
    bcc __b2
    jmp __breturn
    // main::@return
  __breturn:
    // [3] return 
    rts
    // main::@2
  __b2:
    // [4] main::$1 = main::i#2 & 7 -- vbuaa=vbuxx_band_vbuc1 
    txa
    and #7
    // [5] SCREEN[main::i#2] = MSG[main::$1] -- pbuc1_derefidx_vbuxx=pbuc2_derefidx_vbuaa 
    tay
    lda MSG,y
    sta SCREEN,x
    // [6] main::i#1 = ++ main::i#2 -- vbuxx=_inc_vbuxx 
    inx
    // [1] phi from main::@2 to main::@1 [phi:main::@2->main::@1]
  __b1_from___b2:
    // [1] phi main::i#2 = main::i#1 [phi:main::@2->main::@1#0] -- register_copy 
    jmp __b1
}
  // File Data
.segment Data
.encoding "screencode_upper"
  MSG: .text "CAMELOT!"
  .byte 0

ASSEMBLER OPTIMIZATIONS
Removing instruction jmp __b1
Removing instruction jmp __breturn
Succesful ASM optimization Pass5NextJumpElimination
Removing instruction __b1_from_main:
Removing instruction __breturn:
Removing instruction __b1_from___b2:
Succesful ASM optimization Pass5UnusedLabelElimination

FINAL SYMBOL TABLE
__constant char MSG[] = "CAMELOT!"su
__constant char *SCREEN = (char *) 1024
void main()
char main::$1 // reg byte a 22.0
char main::i
char main::i#1 // reg byte x 22.0
char main::i#2 // reg byte x 13.75

reg byte x [ main::i#2 main::i#1 ]
reg byte a [ main::$1 ]


FINAL ASSEMBLER
Score: 276

  // File Comments
// Test declaring a variable as register with no information about which register (for compatibility with standard C)
  // Upstart
  // Commodore 64 PRG executable file
.file [name="var-register-noarg.prg", type="prg", segments="Program"]
.segmentdef Program [segments="Basic, Code, Data"]
.segmentdef Basic [start=$0801]
.segmentdef Code [start=$80d]
.segmentdef Data [startAfter="Code"]
.segment Basic
:BasicUpstart(main)
  // Global Constants & labels
  .label SCREEN = $400
.segment Code
  // main
main: {
    // [1] phi from main to main::@1 [phi:main->main::@1]
    // [1] phi main::i#2 = 0 [phi:main->main::@1#0] -- vbuxx=vbuc1 
    ldx #0
    // main::@1
  __b1:
    // while(i<40*4)
    // [2] if(main::i#2<$28*4) goto main::@2 -- vbuxx_lt_vbuc1_then_la1 
    cpx #$28*4
    bcc __b2
    // main::@return
    // }
    // [3] return 
    rts
    // main::@2
  __b2:
    // i&7
    // [4] main::$1 = main::i#2 & 7 -- vbuaa=vbuxx_band_vbuc1 
    txa
    and #7
    // SCREEN[i++] = MSG[i&7]
    // [5] SCREEN[main::i#2] = MSG[main::$1] -- pbuc1_derefidx_vbuxx=pbuc2_derefidx_vbuaa 
    tay
    lda MSG,y
    sta SCREEN,x
    // SCREEN[i++] = MSG[i&7];
    // [6] main::i#1 = ++ main::i#2 -- vbuxx=_inc_vbuxx 
    inx
    // [1] phi from main::@2 to main::@1 [phi:main::@2->main::@1]
    // [1] phi main::i#2 = main::i#1 [phi:main::@2->main::@1#0] -- register_copy 
    jmp __b1
}
  // File Data
.segment Data
.encoding "screencode_upper"
  MSG: .text "CAMELOT!"
  .byte 0

